cfc-sr1-sr1b,22
V60186,RADMON.1RM.UJ16-2,1RM02S,2544
V60191,RADMON.1RM.UL16-1,1RM01S,2554
V60199,RADMON.1RM.2R1-3,1RM03S,2570
V60205,RADMON.1RM.UPS16-4,1RM04S,2582
V60207,RADMON.1RM.4R1-19,1RM19S,2586
V60249,RADMON.1RM.4R1-8,1RM08S,2668
V60307,RADMON.1RM.5R1-9,1RM09S,2784
V60319,RADMON.1RM.6R1-10,1RM10S,2808
V60333,RADMON.1RM.7R1-11,1RM11S,2836
V60339,RADMON.1RM.RR17-12,1RM12S,2848
V60348,RADMON.1RM.RR17-13,1RM13S,2866
V60355,RADMON.1RM.7R1-14,1RM14S,2880
V60358,RADMON.1RM.8R1-15,1RM15S,2886
V60361,RADMON.1RM.9R1-16,1RM16S,2892
V60367,RADMON.1RM.10R1-17,1RM17S,2904
V60372,RADMON.1RM.11R1-18,1RM18S,2914
V60376,RADMON.1RM.12R1-20,1RM20S,2922
V60377,RADMON.1RM.13R1-21,1RM21S,2924
V60383,RADMON.1RM.14R1-22,1RM22S,2936
V60384,RADMON.1RM.15R1-23,1RM23S,2938
V60386,RADMON.1RM.16R1-24,1RM24S,2942
V60389,RADMON.1RM.17R1-25,1RM25S,2948
